# Viruses: ADV
dates,pointprevalence_low,pointprevalence_estimate,pointprevalence_high
2022-11-20,0.031,0.066,0.14
2022-11-27,0.2,0.44,0.96
2022-12-04,0.063,0.14,0.3
2022-12-11,0.092,0.2,0.42
2022-12-25,0.1,0.25,0.6
2023-01-01,0.17,0.4,0.98
2023-01-08,0.057,0.14,0.34
2023-01-15,0.1,0.25,0.6
2023-01-22,0.062,0.15,0.38
2023-01-29,0,0,0
2023-02-05,0.06,0.15,0.37
2023-02-12,0.08,0.21,0.55
2023-02-19,0.08,0.21,0.55
2023-02-26,0,0,0
2023-03-05,0.18,0.48,1.3
2023-03-12,0,0,0
2023-03-19,0.073,0.19,0.49
2023-03-26,0.073,0.19,0.49
2023-04-02,0.062,0.15,0.38
2023-04-09,0.16,0.42,1.1
2023-04-16,0.096,0.26,0.71
2023-04-23,0,0,0
2023-04-30,0.09,0.24,0.64
2023-05-07,0,0,0
2023-05-14,0,0,0
2023-05-21,0.29,0.86,2.6
2023-05-28,0.11,0.32,0.9
2023-06-04,0.19,0.52,1.4
2023-06-11,0.21,0.57,1.6
2023-06-18,0,0,0
2023-06-25,0,0,0
2023-07-02,0.11,0.32,0.9
2023-07-09,0.23,0.64,1.8
2023-07-16,0,0,0
2023-07-23,0,0,0
2023-07-30,0,0,0
2023-08-06,0,0,0
2023-08-13,0,0,0
2023-08-20,0,0,0
2023-08-28,0.096,0.26,0.71
2023-09-03,0.096,0.26,0.71
2023-09-10,0.17,0.45,1.2
2023-09-17,0,0,0
2023-09-24,0,0,0
2023-10-01,0,0,0
2023-10-08,0,0,0
2023-10-15,0,0,0
2023-10-22,0,0,0
2023-10-29,0,0,0
2023-11-05,0,0,0
2023-11-12,0.096,0.26,0.71
2023-11-19,0,0,0
2023-11-26,0.071,0.18,0.46
2023-12-03,0,0,0
2023-12-10,0.052,0.12,0.3
2023-12-31,0,0,0
2024-01-07,0.054,0.13,0.32
2024-01-14,0.11,0.26,0.64
2024-01-21,0,0,0
2024-01-28,0.17,0.42,1
2024-02-04,0,0,0
2024-02-11,0.06,0.15,0.37
2024-02-18,0.17,0.45,1.2
2024-02-25,0.14,0.33,0.77
2024-03-03,0.051,0.12,0.29
2024-03-10,0.1,0.25,0.6
2024-03-17,0.045,0.1,0.24
2024-03-24,0.066,0.16,0.42
2024-03-31,0.2,0.52,1.3
2024-04-07,0.16,0.38,0.92
2024-04-14,0,0,0
2024-04-21,0.064,0.16,0.4
2024-04-28,0.15,0.36,0.85
2024-05-05,0.16,0.39,0.95
2024-05-12,0,0,0
2024-05-19,0.15,0.4,1
2024-05-26,0,0,0
